# This blocklist helps to restrict access to Google and its domains. Contribute at https://github.com/nickspaargaren/no-google
# Last updated: 2023-12-07
# Doubleclick

0.0.0.0 0.fls.doubleclick.net
0.0.0.0 00.fls.doubleclick.net
0.0.0.0 000.fls.doubleclick.net
0.0.0.0 0000.fls.doubleclick.net
0.0.0.0 00000.fls.doubleclick.net
0.0.0.0 000000.fls.doubleclick.net
0.0.0.0 0000000.fls.doubleclick.net
0.0.0.0 00000000.fls.doubleclick.net
0.0.0.0 000000000.fls.doubleclick.net
0.0.0.0 1000.fls.doubleclick.net
0.0.0.0 10017761.fls.doubleclick.net
0.0.0.0 1003600.fls.doubleclick.net
0.0.0.0 10059400.fls.doubleclick.net
0.0.0.0 10068000.fls.doubleclick.net
0.0.0.0 10074809.fls.doubleclick.net
0.0.0.0 10077000.fls.doubleclick.net
0.0.0.0 10082405.fls.doubleclick.net
0.0.0.0 10094515.fls.doubleclick.net
0.0.0.0 10117223.fls.doubleclick.net
0.0.0.0 10160350.fls.doubleclick.net
0.0.0.0 1016557.fls.doubleclick.net
0.0.0.0 10168703.fls.doubleclick.net
0.0.0.0 10188200.fls.doubleclick.net
0.0.0.0 10210600.fls.doubleclick.net
0.0.0.0 10228400.fls.doubleclick.net
0.0.0.0 10359300.fls.doubleclick.net
0.0.0.0 1268402.fls.doubleclick.net
0.0.0.0 1326154.fls.doubleclick.net
0.0.0.0 1330903.fls.doubleclick.net
0.0.0.0 1435575.fls.doubleclick.net
0.0.0.0 1742177.fls.doubleclick.net
0.0.0.0 2013561.fls.doubleclick.net
0.0.0.0 2196503.fls.doubleclick.net
0.0.0.0 2332696.fls.doubleclick.net
0.0.0.0 2499034.fls.doubleclick.net
0.0.0.0 2507573.fls.doubleclick.net
0.0.0.0 2542116.fls.doubleclick.net
0.0.0.0 2793343.fls.doubleclick.net
0.0.0.0 3130320.fls.doubleclick.net
0.0.0.0 3243857.fls.doubleclick.net
0.0.0.0 3276817.fls.doubleclick.net
0.0.0.0 3501113.fls.doubleclick.net
0.0.0.0 3642305.fls.doubleclick.net
0.0.0.0 3738527.fls.doubleclick.net
0.0.0.0 3765329.fls.doubleclick.net
0.0.0.0 3773523.fls.doubleclick.net
0.0.0.0 3879194.fls.doubleclick.net
0.0.0.0 3941123.fls.doubleclick.net
0.0.0.0 3973258.fls.doubleclick.net
0.0.0.0 3982178.fls.doubleclick.net
0.0.0.0 4053494.fls.doubleclick.net
0.0.0.0 4171764.fls.doubleclick.net
0.0.0.0 4177752.fls.doubleclick.net
0.0.0.0 4191036.fls.doubleclick.net
0.0.0.0 4191748.fls.doubleclick.net
0.0.0.0 4228414.fls.doubleclick.net
0.0.0.0 4235225.fls.doubleclick.net
0.0.0.0 4236808.fls.doubleclick.net
0.0.0.0 4331660.fls.doubleclick.net
0.0.0.0 4338244.fls.doubleclick.net
0.0.0.0 4345210.fls.doubleclick.net
0.0.0.0 4371920.fls.doubleclick.net
0.0.0.0 4375326.fls.doubleclick.net
0.0.0.0 4379742.fls.doubleclick.net
0.0.0.0 4403916.fls.doubleclick.net
0.0.0.0 4487826.fls.doubleclick.net
0.0.0.0 4514783.fls.doubleclick.net
0.0.0.0 4923503.fls.doubleclick.net
0.0.0.0 4942839.fls.doubleclick.net
0.0.0.0 5362399.fls.doubleclick.net
0.0.0.0 5582200.fls.doubleclick.net
0.0.0.0 8210643.fls.doubleclick.net
0.0.0.0 8272590.fls.doubleclick.net
0.0.0.0 8482194.fls.doubleclick.net
0.0.0.0 8522212.fls.doubleclick.net
0.0.0.0 8563004.fls.doubleclick.net
0.0.0.0 8921356.fls.doubleclick.net
0.0.0.0 9309168.fls.doubleclick.net
0.0.0.0 accounts.doubleclick.net
0.0.0.0 ad-ace.doubleclick.net
0.0.0.0 ad-apac.doubleclick.net
0.0.0.0 ad-emea.doubleclick.net
0.0.0.0 ad-g.doubleclick.net
0.0.0.0 ad.3au.doubleclick.net
0.0.0.0 ad.ac.doubleclick.net
0.0.0.0 ad.ae.doubleclick.net
0.0.0.0 ad.ar.doubleclick.net
0.0.0.0 ad.at.doubleclick.net
0.0.0.0 ad.au.doubleclick.net
0.0.0.0 ad.aw.doubleclick.net
0.0.0.0 ad.ax.doubleclick.net
0.0.0.0 ad.be.doubleclick.net
0.0.0.0 ad.bg.doubleclick.net
0.0.0.0 ad.br.doubleclick.net
0.0.0.0 ad.ca.doubleclick.net
0.0.0.0 ad.ch.doubleclick.net
0.0.0.0 ad.cl.doubleclick.net
0.0.0.0 ad.cn.doubleclick.net
0.0.0.0 ad.de.doubleclick.net
0.0.0.0 ad.dk.doubleclick.net
0.0.0.0 ad.doubleclick.com
0.0.0.0 ad.doubleclick.net
0.0.0.0 ad.ee.doubleclick.net
0.0.0.0 ad.eg.doubleclick.net
0.0.0.0 ad.es.doubleclick.net
0.0.0.0 ad.fi.doubleclick.net
0.0.0.0 ad.fr.doubleclick.net
0.0.0.0 ad.gr.doubleclick.net
0.0.0.0 ad.hk.doubleclick.net
0.0.0.0 ad.hr.doubleclick.net
0.0.0.0 ad.hu.doubleclick.net
0.0.0.0 ad.ie.doubleclick.net
0.0.0.0 ad.il.doubleclick.net
0.0.0.0 ad.in.doubleclick.net
0.0.0.0 ad.it.doubleclick.net
0.0.0.0 ad.jp.doubleclick.net
0.0.0.0 ad.kr.doubleclick.net
0.0.0.0 ad.ma.doubleclick.net
0.0.0.0 ad.me.doubleclick.net
0.0.0.0 ad.mo.doubleclick.net
0.0.0.0 ad.n2434.doubleclick.net
0.0.0.0 ad.nl.doubleclick.net
0.0.0.0 ad.no.doubleclick.net
0.0.0.0 ad.nz.doubleclick.net
0.0.0.0 ad.pk.doubleclick.net
0.0.0.0 ad.pl.doubleclick.net
0.0.0.0 ad.pt.doubleclick.net
0.0.0.0 ad.ro.doubleclick.net
0.0.0.0 ad.rs.doubleclick.net
0.0.0.0 ad.ru.doubleclick.net
0.0.0.0 ad.se.doubleclick.net
0.0.0.0 ad.sg.doubleclick.net
0.0.0.0 ad.si.doubleclick.net
0.0.0.0 ad.terra.doubleclick.net
0.0.0.0 ad.th.doubleclick.net
0.0.0.0 ad.tr.doubleclick.net
0.0.0.0 ad.tw.doubleclick.net
0.0.0.0 ad.ua.doubleclick.net
0.0.0.0 ad.uk.doubleclick.net
0.0.0.0 ad.uk.mo.doubleclick.net
0.0.0.0 ad.us.doubleclick.net
0.0.0.0 ad.ve.doubleclick.net
0.0.0.0 ad.za.doubleclick.net
0.0.0.0 ad2.doubleclick.net
0.0.0.0 adclick.g.doubleclick.net
0.0.0.0 ads-bid.l.doubleclick.net
0.0.0.0 advertisers.doubleclick.com
0.0.0.0 advertisersapitest.doubleclick.com
0.0.0.0 adx.g.doubleclick.net
0.0.0.0 betareportcentral.doubleclick.com
0.0.0.0 bid.g.doubleclick.net
0.0.0.0 big.g.doubleclick.net
0.0.0.0 click.comms.doubleclick.com
0.0.0.0 cm.g.doubleclick.net
0.0.0.0 creatives.doubleclick.net
0.0.0.0 dart-ad.l.doubleclick.net
0.0.0.0 dart.l.doubleclick.net
0.0.0.0 dfp.doubleclick.net
0.0.0.0 doubleclick.com
0.0.0.0 doubleclick.de
0.0.0.0 doubleclick.ne.jp
0.0.0.0 doubleclick.net
0.0.0.0 doubleclickbygoogle.com
0.0.0.0 dp.g.doubleclick.net
0.0.0.0 ebay.doubleclick.net
0.0.0.0 emea.doubleclick.com
0.0.0.0 feedads.g.doubleclick.net
0.0.0.0 ff.doubleclick.net
0.0.0.0 fls.au.doubleclick.net
0.0.0.0 fls.doubleclick.net
0.0.0.0 fls.uk.doubleclick.net
0.0.0.0 g.doubleclick.net
0.0.0.0 g0.doubleclick.net
0.0.0.0 g1.doubleclick.net
0.0.0.0 g2.doubleclick.net
0.0.0.0 g3.doubleclick.net
0.0.0.0 gan.doubleclick.net
0.0.0.0 googleads.g.doubleclick.com
0.0.0.0 googleads.g.doubleclick.net
0.0.0.0 googleads2.g.doubleclick.net
0.0.0.0 googleads3.g.doubleclick.net
0.0.0.0 googleads4.g.doubleclick.net
0.0.0.0 googleads6.g.doubleclick.net
0.0.0.0 googleads7.g.doubleclick.net
0.0.0.0 help.doubleclick.com
0.0.0.0 image.comms.doubleclick.com
0.0.0.0 ir.doubleclick.net
0.0.0.0 iv.doubleclick.net
0.0.0.0 l.doubleclick.net
0.0.0.0 learn.doubleclick.com
0.0.0.0 logincrc.doubleclick.com
0.0.0.0 m.doubleclick.com
0.0.0.0 m.doubleclick.net
0.0.0.0 ma.googleads.g.doubleclick.net
0.0.0.0 mediavisor.doubleclick.com
0.0.0.0 mediavisor.doubleclick.net
0.0.0.0 mobile-displayads-uk.l.doubleclick.net
0.0.0.0 mobile-displayads.l.doubleclick.net
0.0.0.0 motifcdn.doubleclick.net
0.0.0.0 motifcdn2.doubleclick.net
0.0.0.0 n4052ad.doubleclick.net
0.0.0.0 n4061ad.hk.doubleclick.net
0.0.0.0 n4061ad.jp.doubleclick.net
0.0.0.0 n4403ad.doubleclick.net
0.0.0.0 n479ad.doubleclick.net
0.0.0.0 ns2.doubleclick.com
0.0.0.0 pagead.l.doubleclick.net
0.0.0.0 pagead46.i.doubleclick.net
0.0.0.0 pagead46.l.doubleclick.net
0.0.0.0 partnerad.l.doubleclick.net
0.0.0.0 paypalssl.doubleclick.net
0.0.0.0 pubads.g.doubleclick.net
0.0.0.0 rd.intl.doubleclick.net
0.0.0.0 reportcentral.doubleclick.com
0.0.0.0 reports.doubleclick.com
0.0.0.0 rich-media-dynamic-ads-api.l.doubleclick.net
0.0.0.0 s0.doubleclick.net
0.0.0.0 s2.video.doubleclick.net
0.0.0.0 search.doubleclick.com
0.0.0.0 secureframe.doubleclick.net
0.0.0.0 securepubads.g.doubleclick.net
0.0.0.0 ssl.doubleclick.com
0.0.0.0 static.doubleclick.com
0.0.0.0 static.doubleclick.net
0.0.0.0 static.doubleclick.netnod
0.0.0.0 stats.g.doubleclick.net
0.0.0.0 stats.l.doubleclick.net
0.0.0.0 studio.doubleclick.com
0.0.0.0 studioapi.doubleclick.com
0.0.0.0 survey.g.doubleclick.net
0.0.0.0 team.doubleclick.com
0.0.0.0 twx.doubleclick.net
0.0.0.0 undefined.fls.doubleclick.net
0.0.0.0 view.comms.doubleclick.com
0.0.0.0 vodads.g.doubleclick.net
0.0.0.0 www.doubleclick.com
0.0.0.0 www.doubleclick.ne.jp
0.0.0.0 www.doubleclick.net
0.0.0.0 www.doubleclickbygoogle.com
0.0.0.0 www.googleads.g.doubleclick.com
0.0.0.0 www1.doubleclick.net
0.0.0.0 www2.doubleclick.com
0.0.0.0 www2.doubleclick.net
0.0.0.0 www3.doubleclick.com
0.0.0.0 www3.doubleclick.net
