# This blocklist helps to restrict access to Google and its domains. Contribute at https://github.com/nickspaargaren/no-google
# Last updated: 2023-12-07
# Firebase

0.0.0.0 0.firebaseio.com
0.0.0.0 00.firebaseio.com
0.0.0.0 0702.firebaseio.com
0.0.0.0 1497962702590.firebaseio.com
0.0.0.0 1509986864091.firebaseio.com
0.0.0.0 178522.firebaseio.com
0.0.0.0 2.firebaseio.com
0.0.0.0 28475021.firebaseio.com
0.0.0.0 2e4a0.firebaseio.com
0.0.0.0 303a0.firebaseio.com
0.0.0.0 30490.firebaseio.com
0.0.0.0 3461.firebaseio.com
0.0.0.0 4069160390.firebaseio.com
0.0.0.0 412.firebaseio.com
0.0.0.0 44f31.firebaseio.com
0.0.0.0 4c381.firebaseio.com
0.0.0.0 6836841961.firebaseio.com
0.0.0.0 9118623467923216370.firebaseio.com
0.0.0.0 93bc1.firebaseio.com
0.0.0.0 99e50.firebaseio.com
0.0.0.0 a6851.firebaseio.com
0.0.0.0 a91d0.firebaseio.com
0.0.0.0 accelerator-tool-2.firebaseio.com
0.0.0.0 accountingflashcardfree.firebaseio.com
0.0.0.0 admob-app-id-1864963202.firebaseio.com
0.0.0.0 admob-app-id-6623078720.firebaseio.com
0.0.0.0 admob-app-id-7468132501.firebaseio.com
0.0.0.0 admob-app-id-8559775202.firebaseio.com
0.0.0.0 admob-app-id-9049355141.firebaseio.com
0.0.0.0 admob-app-id-9875848161.firebaseio.com
0.0.0.0 adsclicker-2.firebaseio.com
0.0.0.0 aibettips.firebaseio.com
0.0.0.0 airemadrid.firebaseio.com
0.0.0.0 airwaybill-1484736833591.firebaseio.com
0.0.0.0 ajpappalpha.firebaseio.com
0.0.0.0 al-quran-147611.firebaseio.com
0.0.0.0 alarmclockmillenium.firebaseio.com
0.0.0.0 all-about-that-ace-1.firebaseio.com
0.0.0.0 allaboutronaldo-da400.firebaseio.com
0.0.0.0 amber-fire-2779.firebaseio.com
0.0.0.0 amber-inferno-4412.firebaseio.com
0.0.0.0 amerkashi.firebaseio.com
0.0.0.0 andrig-efd41.firebaseio.com
0.0.0.0 android-chat-app-e711d.firebaseio.com
0.0.0.0 android-full-time-task.firebaseio.com
0.0.0.0 android-video-merge.firebaseio.com
0.0.0.0 api-project-255162406420.firebaseio.com
0.0.0.0 api-project-431765977501.firebaseio.com
0.0.0.0 api-project-450598502151.firebaseio.com
0.0.0.0 api-project-475197514221.firebaseio.com
0.0.0.0 api-project-768202461730.firebaseio.com
0.0.0.0 api-project-769125352380.firebaseio.com
0.0.0.0 api-project-841415684880.firebaseio.com
0.0.0.0 api-project-859153957109.firebaseio.com
0.0.0.0 api-project-992373329751.firebaseio.com
0.0.0.0 api-project-99912877880.firebaseio.com
0.0.0.0 apotek-1.firebaseio.com
0.0.0.0 appliste-24740.firebaseio.com
0.0.0.0 applock-6f6a1.firebaseio.com
0.0.0.0 appsaver-8a181.firebaseio.com
0.0.0.0 appteam-e41a0.firebaseio.com
0.0.0.0 arca-e5b40.firebaseio.com
0.0.0.0 arco-website-f9750.firebaseio.com
0.0.0.0 asmpro-264f0.firebaseio.com
0.0.0.0 aste-8bff0.firebaseio.com
0.0.0.0 atlanta-season-2.firebaseio.com
0.0.0.0 auto-captions-12702.firebaseio.com
0.0.0.0 autocash-61202.firebaseio.com
0.0.0.0 avenida-fdad0.firebaseio.com
0.0.0.0 avmovie-3fae0.firebaseio.com
0.0.0.0 avoga-11131.firebaseio.com
0.0.0.0 awesome-chat-12bb1.firebaseio.com
0.0.0.0 azzouweb1.firebaseio.com
0.0.0.0 bancolombia-ofertas-a8e10.firebaseio.com
0.0.0.0 bauable.firebaseio.com
0.0.0.0 bdquiz1.firebaseio.com
0.0.0.0 bestself-149010.firebaseio.com
0.0.0.0 biplebizcard01.firebaseio.com
0.0.0.0 bitcoin-pro-2.firebaseio.com
0.0.0.0 blazing-fire-2321.firebaseio.com
0.0.0.0 blinding-fire-600.firebaseio.com
0.0.0.0 blistering-fire-2580.firebaseio.com
0.0.0.0 bluize-loyalty.firebaseio.com
0.0.0.0 boiling-inferno-8141.firebaseio.com
0.0.0.0 bold-guru-770.firebaseio.com
0.0.0.0 boxnews-e6051.firebaseio.com
0.0.0.0 bricks-breaker-quest-75218431.firebaseio.com
0.0.0.0 brilliant-fire-4321.firebaseio.com
0.0.0.0 brilliant-fire-6822.firebaseio.com
0.0.0.0 brilliant-inferno-2411.firebaseio.com
0.0.0.0 britanicoappmovil.firebaseio.com
0.0.0.0 browser-on-7bea1.firebaseio.com
0.0.0.0 bundesliga-official-appr.firebaseio.com
0.0.0.0 bundesliga-official-dev.firebaseio.com
0.0.0.0 bundesliga-official.firebaseio.com
0.0.0.0 burning-torch-8091.firebaseio.com
0.0.0.0 business-live-aca4c.firebaseio.com
0.0.0.0 cam4-10.firebaseio.com
0.0.0.0 cam4-2.firebaseio.com
0.0.0.0 camarafacil-de702.firebaseio.com
0.0.0.0 camelculator-d3471.firebaseio.com
0.0.0.0 campus-maps-a46c1.firebaseio.com
0.0.0.0 canary-fb091.firebaseio.com
0.0.0.0 capp-dc4b1.firebaseio.com
0.0.0.0 car-wallet-12321.firebaseio.com
0.0.0.0 cash-reward-4f8c0.firebaseio.com
0.0.0.0 cashmall03122.firebaseio.com
0.0.0.0 casita-145101.firebaseio.com
0.0.0.0 castbox-x-01.firebaseio.com
0.0.0.0 cavalry-app-prod.firebaseio.com
0.0.0.0 cbreviewable.firebaseio.com
0.0.0.0 cccc-416d1.firebaseio.com
0.0.0.0 cents-7ac71.firebaseio.com
0.0.0.0 chatchallenge-38f91.firebaseio.com
0.0.0.0 chatn-0.firebaseio.com
0.0.0.0 chatx-cb2c0.firebaseio.com
0.0.0.0 chilkat.firebaseio.com
0.0.0.0 cicty1.firebaseio.com
0.0.0.0 citiguides-1001-1200.firebaseio.com
0.0.0.0 citiguides-1201-1400.firebaseio.com
0.0.0.0 citiguides-801-1000.firebaseio.com
0.0.0.0 cityguides-1401-1600.firebaseio.com
0.0.0.0 cityguides-1601-1800.firebaseio.com
0.0.0.0 cityguides-1801-2000.firebaseio.com
0.0.0.0 cityguides-301-600.firebaseio.com
0.0.0.0 cityguides-401-600.firebaseio.com
0.0.0.0 cityguides-601-800.firebaseio.com
0.0.0.0 cityguides1914-1289.firebaseio.com
0.0.0.0 ckmobilegcm.firebaseio.com
0.0.0.0 clujpubs-310c1.firebaseio.com
0.0.0.0 cocabc-c05f1.firebaseio.com
0.0.0.0 colourgo-1201.firebaseio.com
0.0.0.0 comexposure0.firebaseio.com
0.0.0.0 comjosappscalvaryassembly.firebaseio.com
0.0.0.0 comnllacr.firebaseio.com
0.0.0.0 complementos-kodi-2.firebaseio.com
0.0.0.0 conf-link-c3c12.firebaseio.com
0.0.0.0 config-app-game-1.firebaseio.com
0.0.0.0 connect-four-8ef41.firebaseio.com
0.0.0.0 console.firebase.google.com
0.0.0.0 convrrt-1081.firebaseio.com
0.0.0.0 cooking-recipes-95270.firebaseio.com
0.0.0.0 copypastetrial11.firebaseio.com
0.0.0.0 coresuccesssystem-abd71.firebaseio.com
0.0.0.0 cpaf-813e0.firebaseio.com
0.0.0.0 cricheroestest.firebaseio.com
0.0.0.0 crittermap-bc865.firebaseio.com
0.0.0.0 crm-cloud-151712.firebaseio.com
0.0.0.0 cryptomarketeu-95100.firebaseio.com
0.0.0.0 cssm-f92e0.firebaseio.com
0.0.0.0 cudaustream.firebaseio.com
0.0.0.0 cybele-c43e0.firebaseio.com
0.0.0.0 cybermentor-dc370.firebaseio.com
0.0.0.0 d2connect-0001.firebaseio.com
0.0.0.0 dating-app1.firebaseio.com
0.0.0.0 dazzling-fire-7140.firebaseio.com
0.0.0.0 decisive-unison-821.firebaseio.com
0.0.0.0 defensetv-b42ca.firebaseio.com
0.0.0.0 dek-project-29b11.firebaseio.com
0.0.0.0 digital-world0.firebaseio.com
0.0.0.0 disneyparksapi.firebaseio.com
0.0.0.0 dispersa-1350.firebaseio.com
0.0.0.0 dogearn-5d3e1.firebaseio.com
0.0.0.0 donger-keyboard-50881.firebaseio.com
0.0.0.0 download1.firebaseio.com
0.0.0.0 downloadmanagerprod.firebaseio.com
0.0.0.0 dr-driving-2-5175284.firebaseio.com
0.0.0.0 drcannabisconsult-7bc40.firebaseio.com
0.0.0.0 dsmn8-production.firebaseio.com
0.0.0.0 dsummit-6d55b.firebaseio.com
0.0.0.0 dududu-46e50.firebaseio.com
0.0.0.0 e-object-544-shard1.firebaseio.com
0.0.0.0 e-tasker-79ee7.firebaseio.com
0.0.0.0 e25006810.firebaseio.com
0.0.0.0 earn-cash-2.firebaseio.com
0.0.0.0 earn-doller-8c912.firebaseio.com
0.0.0.0 earn-e34c1.firebaseio.com
0.0.0.0 earn-money-f37f0.firebaseio.com
0.0.0.0 earn-mony-4c461.firebaseio.com
0.0.0.0 earn-pesa-a0550.firebaseio.com
0.0.0.0 earn-real-74102.firebaseio.com
0.0.0.0 earn-today-d26d1.firebaseio.com
0.0.0.0 earn-with-fun-415f0.firebaseio.com
0.0.0.0 earnbd-96322.firebaseio.com
0.0.0.0 earnfreecash-c6300.firebaseio.com
0.0.0.0 earning-app-11.firebaseio.com
0.0.0.0 earning-app-63590.firebaseio.com
0.0.0.0 earningpaisa-a5590.firebaseio.com
0.0.0.0 earnrtc-sa360.firebaseio.com
0.0.0.0 earnsmart-8d5a1.firebaseio.com
0.0.0.0 egbook12.firebaseio.com
0.0.0.0 english-for-beginners-15221.firebaseio.com
0.0.0.0 eternal-courage-821.firebaseio.com
0.0.0.0 ethiomedia-d6211.firebaseio.com
0.0.0.0 even-archway-129110.firebaseio.com
0.0.0.0 events-near-me-ce320.firebaseio.com
0.0.0.0 excahngereatiq.firebaseio.com
0.0.0.0 extroverts-d26f1.firebaseio.com
0.0.0.0 eyegasm-b4b40.firebaseio.com
0.0.0.0 eysenckiq.firebaseio.com
0.0.0.0 ezapi-446d0.firebaseio.com
0.0.0.0 ezzw-ff1d0.firebaseio.com
0.0.0.0 famobi-01.firebaseio.com
0.0.0.0 fan-club-master.firebaseio.com
0.0.0.0 farhan-ali-qadri-6af90.firebaseio.com
0.0.0.0 fast-cleaner-88a9e.firebaseio.com
0.0.0.0 favequest1.firebaseio.com
0.0.0.0 fbtest-ad97d.firebaseio.com
0.0.0.0 festival-sms.firebaseio.com
0.0.0.0 fiery-torch-2122-893f1.firebaseio.com
0.0.0.0 figaro-live-f8d02.firebaseio.com
0.0.0.0 film-f4330.firebaseio.com
0.0.0.0 final-project-recording.firebaseio.com
0.0.0.0 findplanking3321.firebaseio.com
0.0.0.0 firebase-dot-google-developers.appspot.com
0.0.0.0 firebase-settings.crashlytics.com
0.0.0.0 firebase.com
0.0.0.0 firebase.google.com
0.0.0.0 firebase.googleapis.com
0.0.0.0 firebasedynamiclinks-ipv4.googleapis.com
0.0.0.0 firebasedynamiclinks-ipv6.googleapis.com
0.0.0.0 firebasedynamiclinks.googleapis.com
0.0.0.0 firebaseio.com
0.0.0.0 firebaselogging.googleapis.com
0.0.0.0 firetest-a1d61.firebaseio.com
0.0.0.0 firework-fever-2.firebaseio.com
0.0.0.0 firisoft-44d02.firebaseio.com
0.0.0.0 flashbeauth.firebaseio.com
0.0.0.0 flashlight-66f11.firebaseio.com
0.0.0.0 flickering-fire-6001.firebaseio.com
0.0.0.0 foldio360.firebaseio.com
0.0.0.0 foodit-prod-d4411.firebaseio.com
0.0.0.0 football-leagues-cb8b0.firebaseio.com
0.0.0.0 foreman-e5550.firebaseio.com
0.0.0.0 forumdb100001.firebaseio.com
0.0.0.0 forumdbopen100001.firebaseio.com
0.0.0.0 foxtv-64702.firebaseio.com
0.0.0.0 free-coin-free-spin-master-2.firebaseio.com
0.0.0.0 free-paytm-cash-task-d3fed.firebaseio.com
0.0.0.0 freebitcoin-ea8d0.firebaseio.com
0.0.0.0 fridabar-6fbe1.firebaseio.com
0.0.0.0 fruitbasket-5d450.firebaseio.com
0.0.0.0 fso3-20040.firebaseio.com
0.0.0.0 fynse-8b012.firebaseio.com
0.0.0.0 game1-57210.firebaseio.com
0.0.0.0 gaonsoft1.firebaseio.com
0.0.0.0 gardenplanner-1485566704680.firebaseio.com
0.0.0.0 gdghyderabad-19758.firebaseio.com
0.0.0.0 giaibaitap11.firebaseio.com
0.0.0.0 giftforgame.firebaseio.com
0.0.0.0 glaring-heat-51.firebaseio.com
0.0.0.0 global-office-be131.firebaseio.com
0.0.0.0 global-sms-2.firebaseio.com
0.0.0.0 glowing-fire-6771.firebaseio.com
0.0.0.0 gmelius-01.firebaseio.com
0.0.0.0 gnowbe-app-2.firebaseio.com
0.0.0.0 gochat-2.firebaseio.com
0.0.0.0 good-night-gif-3d340.firebaseio.com
0.0.0.0 goodquatos.firebaseio.com
0.0.0.0 gorate-c2426.firebaseio.com
0.0.0.0 gpsnavigation3d081.firebaseio.com
0.0.0.0 greenify.firebaseio.com
0.0.0.0 greenrcabsmalta.firebaseio.com
0.0.0.0 gregmarine-770a0.firebaseio.com
0.0.0.0 groohabi1.firebaseio.com
0.0.0.0 hacker-news.firebaseio.com
0.0.0.0 hackuna002.firebaseio.com
0.0.0.0 haibison.firebaseio.com
0.0.0.0 hair-style-step-by-step-7da22.firebaseio.com
0.0.0.0 hammer-733a0.firebaseio.com
0.0.0.0 hatharom-b5560.firebaseio.com
0.0.0.0 heroes-infinity-34559620.firebaseio.com
0.0.0.0 heybaby-155617.firebaseio.com
0.0.0.0 hivereward-c68a0.firebaseio.com
0.0.0.0 hologram-1f9f0.firebaseio.com
0.0.0.0 homeofzen-e4d80.firebaseio.com
0.0.0.0 ht-ft-fixed-2.firebaseio.com
0.0.0.0 httpsmovistar-on-55f51.firebaseio.com
0.0.0.0 hyfytv-8a200.firebaseio.com
0.0.0.0 i-code-c5e41.firebaseio.com
0.0.0.0 iceprod1.firebaseio.com
0.0.0.0 ideapp-ea122.firebaseio.com
0.0.0.0 iery-torch-2122-893f1.firebaseio.com
0.0.0.0 include-release.firebaseio.com
0.0.0.0 incredible-india1.firebaseio.com
0.0.0.0 infoneige1.firebaseio.com
0.0.0.0 inolocator.firebaseio.com
0.0.0.0 inoreaderbg.firebaseio.com
0.0.0.0 instacart.firebaseio.com
0.0.0.0 instacash-8c9b1.firebaseio.com
0.0.0.0 invoicery-app.firebaseio.com
0.0.0.0 ipl-2018-b5581.firebaseio.com
0.0.0.0 ipl2018-66721.firebaseio.com
0.0.0.0 iq-test-1991.firebaseio.com
0.0.0.0 jfa-new-001.firebaseio.com
0.0.0.0 jiocoins-61ca1.firebaseio.com
0.0.0.0 juke-b94f0.firebaseio.com
0.0.0.0 jumkey-a3822.firebaseio.com
0.0.0.0 june-research.firebaseio.com
0.0.0.0 kazandiranbahistahminleri.firebaseio.com
0.0.0.0 kclientv40.firebaseio.com
0.0.0.0 keep-rewards-305d0.firebaseio.com
0.0.0.0 kelas1.firebaseio.com
0.0.0.0 khaidhi-no-150.firebaseio.com
0.0.0.0 khmer-radios-bf010.firebaseio.com
0.0.0.0 kimcy929application.firebaseio.com
0.0.0.0 kits-world-7c320.firebaseio.com
0.0.0.0 kreatif522.firebaseio.com
0.0.0.0 lagupop-c7585.firebaseio.com
0.0.0.0 leafapp001.firebaseio.com
0.0.0.0 legal4legal-f46e0.firebaseio.com
0.0.0.0 less-173412.firebaseio.com
0.0.0.0 level-cfcb1.firebaseio.com
0.0.0.0 lfe-production-b1.firebaseio.com
0.0.0.0 limbik-28ba0.firebaseio.com
0.0.0.0 limetaxidriverizh43.firebaseio.com
0.0.0.0 litecash-test-2.firebaseio.com
0.0.0.0 little-math-genius-algeb-991.firebaseio.com
0.0.0.0 live-chat-91e9d.firebaseio.com
0.0.0.0 live-quiz-prod.firebaseio.com
0.0.0.0 livechat-45820.firebaseio.com
0.0.0.0 liverpoolapp-ecd02.firebaseio.com
0.0.0.0 livewallpapers-1a111.firebaseio.com
0.0.0.0 logicpaq-1011.firebaseio.com
0.0.0.0 login-d6780.firebaseio.com
0.0.0.0 lookchupchatapp.firebaseio.com
0.0.0.0 looot-65b60.firebaseio.com
0.0.0.0 love-b86d0.firebaseio.com
0.0.0.0 lukasapp1.firebaseio.com
0.0.0.0 luminous-inferno-8240.firebaseio.com
0.0.0.0 luminous-torch-6850.firebaseio.com
0.0.0.0 luniitheque-dev.firebaseio.com
0.0.0.0 luniitheque-prod.firebaseio.com
0.0.0.0 lyft-reviewable.firebaseio.com
0.0.0.0 maestro-01.firebaseio.com
0.0.0.0 magicmirror000001.firebaseio.com
0.0.0.0 makaanbuyernew.firebaseio.com
0.0.0.0 manakane-4939510.firebaseio.com
0.0.0.0 manga-95912.firebaseio.com
0.0.0.0 master-for-minecraft.firebaseio.com
0.0.0.0 match-1.firebaseio.com
0.0.0.0 matelas-1.firebaseio.com
0.0.0.0 matrixcalculatorandsolver.firebaseio.com
0.0.0.0 mbankingretail.firebaseio.com
0.0.0.0 mdg-bin-1.firebaseio.com
0.0.0.0 mdg-bin-2.firebaseio.com
0.0.0.0 medialaan-voting-1.firebaseio.com
0.0.0.0 medialaan-voting-2.firebaseio.com
0.0.0.0 memeking-80290.firebaseio.com
0.0.0.0 memory-cleaner-bc041.firebaseio.com
0.0.0.0 mensagens-engracadas-a2530.firebaseio.com
0.0.0.0 mercicustomerapp.firebaseio.com
0.0.0.0 mha-wallpapers-c1551.firebaseio.com
0.0.0.0 milliongenie.firebaseio.com
0.0.0.0 miuicustomfontinstaller.firebaseio.com
0.0.0.0 mobile-cash-f9fd1.firebaseio.com
0.0.0.0 mobile-number-location-t-c8261.firebaseio.com
0.0.0.0 mobilemart-94a71.firebaseio.com
0.0.0.0 monash-onboarding-prod.firebaseio.com
0.0.0.0 movietube-5b2b1.firebaseio.com
0.0.0.0 movistar-on-55f51.firebaseio.com
0.0.0.0 movistartest-1021.firebaseio.com
0.0.0.0 mp-comm-db-1.firebaseio.com
0.0.0.0 msicamp3grats.firebaseio.com
0.0.0.0 multiplephotoresizer.firebaseio.com
0.0.0.0 musica-cristiana-14ff0.firebaseio.com
0.0.0.0 musica-reggae-1.firebaseio.com
0.0.0.0 my-android-apps-e0f40.firebaseio.com
0.0.0.0 my-awesome-project-15251.firebaseio.com
0.0.0.0 my-project-1470348435540.firebaseio.com
0.0.0.0 myairtelapp-9b922.firebaseio.com
0.0.0.0 mystudiobeta.firebaseio.com
0.0.0.0 myviralproject-59df1.firebaseio.com
0.0.0.0 n10.firebaseio.com
0.0.0.0 nablusitafseer2017.firebaseio.com
0.0.0.0 nana-337f1.firebaseio.com
0.0.0.0 nbamanager15.firebaseio.com
0.0.0.0 networkrd1.firebaseio.com
0.0.0.0 new-and-used-boat-2.firebaseio.com
0.0.0.0 newapp-27686.firebaseio.com
0.0.0.0 newdic-458b1.firebaseio.com
0.0.0.0 newsq10.firebaseio.com
0.0.0.0 ngominhluong1950.firebaseio.com
0.0.0.0 nhaphoc-11722.firebaseio.com
0.0.0.0 nmdp-b86eb-users-ko.firebaseio.com
0.0.0.0 nnnotificatieapp01.firebaseio.com
0.0.0.0 nodemcuserver.firebaseio.com
0.0.0.0 norse-period-149211.firebaseio.com
0.0.0.0 notification11110.firebaseio.com
0.0.0.0 notifications1-6a418.firebaseio.com
0.0.0.0 novo-gabaritando-enem.firebaseio.com
0.0.0.0 nspintldiv1.firebaseio.com
0.0.0.0 nycsubwaymap-41171.firebaseio.com
0.0.0.0 okdemo-be1a0.firebaseio.com
0.0.0.0 online-money-22430.firebaseio.com
0.0.0.0 onomojkl.firebaseio.com
0.0.0.0 ooc2018kkp-fd431.firebaseio.com
0.0.0.0 ooredoo-app-2-android-4df51.firebaseio.com
0.0.0.0 open-live-2.firebaseio.com
0.0.0.0 orderapp10.firebaseio.com
0.0.0.0 orderapp3681.firebaseio.com
0.0.0.0 organicpop1.firebaseio.com
0.0.0.0 paidadmusicplayer1.firebaseio.com
0.0.0.0 para-f30e0.firebaseio.com
0.0.0.0 paworkload01.firebaseio.com
0.0.0.0 paytm-cash-80582.firebaseio.com
0.0.0.0 paytm-cash-97841.firebaseio.com
0.0.0.0 peardeck-fbs-1.firebaseio.com
0.0.0.0 peardeck-fbs-2.firebaseio.com
0.0.0.0 peoject1-1a900.firebaseio.com
0.0.0.0 person-tracker-pro-4-in-1.firebaseio.com
0.0.0.0 phar-dae91.firebaseio.com
0.0.0.0 phle-a8540.firebaseio.com
0.0.0.0 phone-cleaner-15a00.firebaseio.com
0.0.0.0 picosweet-ab9e0.firebaseio.com
0.0.0.0 pinkcab-11df6.firebaseio.com
0.0.0.0 piquandtp.firebaseio.com
0.0.0.0 pixetic.firebaseio.com
0.0.0.0 pixomatic-140712.firebaseio.com
0.0.0.0 planoly-1321.firebaseio.com
0.0.0.0 pluspurple3030.firebaseio.com
0.0.0.0 pocket-cash-537c0.firebaseio.com
0.0.0.0 pool2x0v1.firebaseio.com
0.0.0.0 poopratech.firebaseio.com
0.0.0.0 popping-fire-5430.firebaseio.com
0.0.0.0 popping-heat-6700.firebaseio.com
0.0.0.0 powermatrix1.firebaseio.com
0.0.0.0 prevozorg.firebaseio.com
0.0.0.0 productflavourapp1.firebaseio.com
0.0.0.0 progetto-live-chat-2.firebaseio.com
0.0.0.0 progroupapp-60fc1.firebaseio.com
0.0.0.0 project--884800209822234491.firebaseio.com
0.0.0.0 project-3028811594921449202.firebaseio.com
0.0.0.0 project-4338153728638049170.firebaseio.com
0.0.0.0 project-5266949441812288440.firebaseio.com
0.0.0.0 project-68f31.firebaseio.com
0.0.0.0 project-937780894233945201.firebaseio.com
0.0.0.0 proof-2.firebaseio.com
0.0.0.0 proxy-browser-afb41.firebaseio.com
0.0.0.0 prumoney-cf060.firebaseio.com
0.0.0.0 psatest-75d50.firebaseio.com
0.0.0.0 psychology-facts-db512.firebaseio.com
0.0.0.0 pubjimobile-e1ecf.firebaseio.com
0.0.0.0 puruliavideo.firebaseio.com
0.0.0.0 push-notification-5-23841.firebaseio.com
0.0.0.0 pushpop.firebaseio.com
0.0.0.0 qhd-wallpapers-e9d30.firebaseio.com
0.0.0.0 qmssystem-5f780.firebaseio.com
0.0.0.0 qtsjk001.firebaseio.com
0.0.0.0 quantum-beach-168711.firebaseio.com
0.0.0.0 quellevoiture-44bb0.firebaseio.com
0.0.0.0 quran-5f4a1.firebaseio.com
0.0.0.0 raagav500.firebaseio.com
0.0.0.0 radiant-torch-8044.firebaseio.com
0.0.0.0 radio-ad381.firebaseio.com
0.0.0.0 radio-zu-f9512.firebaseio.com
0.0.0.0 radios-del-mundial-2.firebaseio.com
0.0.0.0 radiosnative.firebaseio.com
0.0.0.0 random-showers-f5401.firebaseio.com
0.0.0.0 react-shopping-cart-67954.firebaseio.com
0.0.0.0 recipe-book-97300.firebaseio.com
0.0.0.0 recon.firebaseio.com
0.0.0.0 register-1c790.firebaseio.com
0.0.0.0 registration-c3b21.firebaseio.com
0.0.0.0 relaxation-bowl-7b6e1.firebaseio.com
0.0.0.0 resplendent-fire-5140.firebaseio.com
0.0.0.0 resplendent-inferno-9530.firebaseio.com
0.0.0.0 reviewable-k8s.firebaseio.com
0.0.0.0 reviewable.firebaseio.com
0.0.0.0 ring-tone-abd70.firebaseio.com
0.0.0.0 robocopy-184611.firebaseio.com
0.0.0.0 roll-call-2.firebaseio.com
0.0.0.0 roll20-22.firebaseio.com
0.0.0.0 roya-tv-app.firebaseio.com
0.0.0.0 royal-earn-2.firebaseio.com
0.0.0.0 s-usc1a-nss-2023.firebase.io
0.0.0.0 s-usc1c-nss-100.firebaseio.com
0.0.0.0 s-usc1c-nss-101.firebaseio.com
0.0.0.0 s-usc1c-nss-102.firebaseio.com
0.0.0.0 s-usc1c-nss-111.firebaseio.com
0.0.0.0 s-usc1c-nss-112.firebaseio.com
0.0.0.0 s-usc1c-nss-120.firebaseio.com
0.0.0.0 s-usc1c-nss-121.firebaseio.com
0.0.0.0 s-usc1c-nss-122.firebaseio.com
0.0.0.0 s-usc1c-nss-126.firebaseio.com
0.0.0.0 s-usc1c-nss-130.firebaseio.com
0.0.0.0 s-usc1c-nss-131.firebaseio.com
0.0.0.0 s-usc1c-nss-136.firebaseio.com
0.0.0.0 s-usc1c-nss-140.firebaseio.com
0.0.0.0 s-usc1c-nss-200.firebaseio.com
0.0.0.0 s-usc1c-nss-201.firebaseio.com
0.0.0.0 s-usc1c-nss-202.firebaseio.com
0.0.0.0 s-usc1c-nss-210.firebaseio.com
0.0.0.0 s-usc1c-nss-211.firebaseio.com
0.0.0.0 s-usc1c-nss-212.firebaseio.com
0.0.0.0 s-usc1c-nss-219.firebaseio.com
0.0.0.0 s-usc1c-nss-220.firebaseio.com
0.0.0.0 s-usc1c-nss-221.firebaseio.com
0.0.0.0 s-usc1c-nss-222.firebaseio.com
0.0.0.0 s-usc1c-nss-226.firebaseio.com
0.0.0.0 s-usc1c-nss-230.firebaseio.com
0.0.0.0 s-usc1c-nss-231.firebaseio.com
0.0.0.0 s-usc1c-nss-236.firebaseio.com
0.0.0.0 s-usc1c-nss-240.firebaseio.com
0.0.0.0 s-usc1c-nss-241.firebaseio.com
0.0.0.0 s-usc1c-nss-250.firebaseio.com
0.0.0.0 s-usc1c-nss-251.firebaseio.com
0.0.0.0 s-usc1c-nss-257.firebaseio.com
0.0.0.0 s-usc1c-nss-260.firebaseio.com
0.0.0.0 s-usc1c-nss-261.firebaseio.com
0.0.0.0 s-usc1c-nss-268.firebaseio.com
0.0.0.0 s-usc1c-nss-269.firebaseio.com
0.0.0.0 s-usc1c-nss-301.firebaseio.com
0.0.0.0 s-usc1c-nss-511.firebaseio.com
0.0.0.0 s-usc1c-nss-512.firebaseio.com
0.0.0.0 s-usc1c-nss-520.firebaseio.com
0.0.0.0 s-usc1c-nss-521.firebaseio.com
0.0.0.0 s-usc1c-nss-522.firebaseio.com
0.0.0.0 s-usc1c-nss-600.firebaseio.com
0.0.0.0 saisonportalfirebase.firebaseio.com
0.0.0.0 salt-29ed0.firebaseio.com
0.0.0.0 sample-api-78c77.firebaseio.com
0.0.0.0 sankey-d043b.firebaseio.com
0.0.0.0 satoshi-maker-87200.firebaseio.com
0.0.0.0 savethedate-da081.firebaseio.com
0.0.0.0 schoolet20.firebaseio.com
0.0.0.0 scorching-inferno-7900.firebaseio.com
0.0.0.0 sectoralarm1.firebaseio.com
0.0.0.0 ser-bachiller.firebaseio.com
0.0.0.0 serbisyoph-eaa11.firebaseio.com
0.0.0.0 sfcash-cd511.firebaseio.com
0.0.0.0 shining-fir31.firebaseio.com
0.0.0.0 shining-fire-71.firebaseio.com
0.0.0.0 shining-fire-731.firebaseio.com
0.0.0.0 shining-heat-9700.firebaseio.com
0.0.0.0 shipmerger.firebaseio.com
0.0.0.0 shmuapp.firebaseio.com
0.0.0.0 shopeasymarch17.firebaseio.com
0.0.0.0 shoplistshare-ce724.firebaseio.com
0.0.0.0 shoppearn-e04a0.firebaseio.com
0.0.0.0 shoptalk-dd7e1.firebaseio.com
0.0.0.0 short-story-c4712.firebaseio.com
0.0.0.0 sikhsiyasat1.firebaseio.com
0.0.0.0 silicon-current-856.firebaseio.com
0.0.0.0 simplefax-c9ca1.firebaseio.com
0.0.0.0 simplycash-b5d35.firebaseio.com
0.0.0.0 slackchatv1.firebaseio.com
0.0.0.0 sllwdr1.firebaseio.com
0.0.0.0 smart-jobs-21.firebaseio.com
0.0.0.0 smartarmenia-12.firebaseio.com
0.0.0.0 smartlife-3d231.firebaseio.com
0.0.0.0 snack-tracker-ce0c1.firebaseio.com
0.0.0.0 snuckls-ac091.firebaseio.com
0.0.0.0 socialtripapp.firebaseio.com
0.0.0.0 sonography-81590.firebaseio.com
0.0.0.0 soundplex-162212.firebaseio.com
0.0.0.0 spintm-1.firebaseio.com
0.0.0.0 splashtutorial1.firebaseio.com
0.0.0.0 spyapp-80e12.firebaseio.com
0.0.0.0 ss-vpn-7eb51.firebaseio.com
0.0.0.0 sssak-8d2c0.firebaseio.com
0.0.0.0 stanislavtest1.firebaseio.com
0.0.0.0 startracker.firebaseio.com
0.0.0.0 stickerforgboard.firebaseio.com
0.0.0.0 streamago1.firebaseio.com
0.0.0.0 stunning-base-164402.firebaseio.com
0.0.0.0 sume-93a61.firebaseio.com
0.0.0.0 supervideos1-200900.firebaseio.com
0.0.0.0 support-24f20.firebaseio.com
0.0.0.0 sweltering-fire-5850.firebaseio.com
0.0.0.0 tanslate08.firebaseio.com
0.0.0.0 taptoearn-1dcc1.firebaseio.com
0.0.0.0 tariq-jameel-abda0.firebaseio.com
0.0.0.0 tcash-d5880.firebaseio.com
0.0.0.0 technicalcash-73c21.firebaseio.com
0.0.0.0 tenniscric-2cc22.firebaseio.com
0.0.0.0 teog-cikmis-sorular-6f7f1.firebaseio.com
0.0.0.0 test-c44fe.firebaseio.com
0.0.0.0 thehinduvocabularytop100.firebaseio.com
0.0.0.0 theofficequest.firebaseio.com
0.0.0.0 thunkable-firebase-account-2.firebaseio.com
0.0.0.0 titanium1.firebaseio.com
0.0.0.0 tlloanapp-d0571.firebaseio.com
0.0.0.0 toeic-p1.firebaseio.com
0.0.0.0 tooligram-prod-2.firebaseio.com
0.0.0.0 top100.firebaseio.com
0.0.0.0 topschoolcustomapp1.firebaseio.com
0.0.0.0 toxic-986c0.firebaseio.com
0.0.0.0 trainenquiryandpnrstatus.firebaseio.com
0.0.0.0 truesports-166011.firebaseio.com
0.0.0.0 ttv-1.firebaseio.com
0.0.0.0 ttv-10.firebaseio.com
0.0.0.0 ttv-11.firebaseio.com
0.0.0.0 ttv-12.firebaseio.com
0.0.0.0 ttv-2.firebaseio.com
0.0.0.0 ttv-20.firebaseio.com
0.0.0.0 ttv-21.firebaseio.com
0.0.0.0 ttv-22.firebaseio.com
0.0.0.0 ttv-30.firebaseio.com
0.0.0.0 tvpato2n.firebaseio.com
0.0.0.0 tvwatch-ea411.firebaseio.com
0.0.0.0 uaeenoffers.firebaseio.com
0.0.0.0 unlockme-a9230.firebaseio.com
0.0.0.0 urbvan-ff961.firebaseio.com
0.0.0.0 us1-prod-outbound-io-outbound-34db1.firebaseio.com
0.0.0.0 us1-prod-outbound-io-outbound-c4370.firebaseio.com
0.0.0.0 userapp-30b61.firebaseio.com
0.0.0.0 uygulamalarim21.firebaseio.com
0.0.0.0 v1.firebaseio.com
0.0.0.0 v6news-90e16.firebaseio.com
0.0.0.0 victoria-s-secret91.firebaseio.com
0.0.0.0 videoappsset1.firebaseio.com
0.0.0.0 videopopup-46680.firebaseio.com
0.0.0.0 viededinde-6f5e0.firebaseio.com
0.0.0.0 vivid-inferno-5001.firebaseio.com
0.0.0.0 vkonnectnext.firebaseio.com
0.0.0.0 vlocallymealcoupon.firebaseio.com
0.0.0.0 vnmax-9eeb0.firebaseio.com
0.0.0.0 walla-hamal.firebaseio.com
0.0.0.0 wallpaperboard-6dd71.firebaseio.com
0.0.0.0 wallpapers-9bab0.firebaseio.com
0.0.0.0 watch-to-earning-94222.firebaseio.com
0.0.0.0 wcapex-832e0.firebaseio.com
0.0.0.0 wdyp-33d11.firebaseio.com
0.0.0.0 whatsadpk-b3371.firebaseio.com
0.0.0.0 whatsappadds-f51c0.firebaseio.com
0.0.0.0 whatsassist-97a31.firebaseio.com
0.0.0.0 where-is-xur-20a90.firebaseio.com
0.0.0.0 wikiquran-b3f71.firebaseio.com
0.0.0.0 winbitit-f8d80.firebaseio.com
0.0.0.0 wix-engage-visitors-prod-0.firebaseio.com
0.0.0.0 wix-engage-visitors-prod-1.firebaseio.com
0.0.0.0 wix-engage-visitors-prod-10.firebaseio.com
0.0.0.0 wix-engage-visitors-prod-11.firebaseio.com
0.0.0.0 wix-engage-visitors-prod-12.firebaseio.com
0.0.0.0 wix-engage-visitors-prod-2.firebaseio.com
0.0.0.0 wix-engage-visitors-prod-21.firebaseio.com
0.0.0.0 wooplr100.firebaseio.com
0.0.0.0 work4money-c0161.firebaseio.com
0.0.0.0 world-cup-b5f30.firebaseio.com
0.0.0.0 worldlinkapps1.firebaseio.com
0.0.0.0 worldmap-cb380.firebaseio.com
0.0.0.0 woroluxci.firebaseio.com
0.0.0.0 writingprompts-82151.firebaseio.com
0.0.0.0 writio-1341.firebaseio.com
0.0.0.0 www.console.firebase.google.com
0.0.0.0 www.firebaseio.com
0.0.0.0 xploree-1012.firebaseio.com
0.0.0.0 yamm1.firebaseio.com
0.0.0.0 yocash-c7d02.firebaseio.com
0.0.0.0 yotatravel.firebaseio.com
0.0.0.0 yourdiarypush.firebaseio.com
0.0.0.0 youtubeplayer-179212.firebaseio.com
0.0.0.0 ys-tactics-5a050.firebaseio.com
0.0.0.0 zeta-period-845-typing-feedback-001.firebaseio.com
0.0.0.0 zizounihalldev.firebaseio.com
0.0.0.0 zoomtorino.firebaseio.com
